220	1	0
222	0	0
224	0	0
226	0	0
228	0	0
230	0	0
232	0	0
234	0	0
236	0	0
238	0	0
260	1	0
262	0	0
264	0	0
266	0	0
268	0	0
270	0	0
272	0	0
274	0	0
276	0	0
278	0	0
280	1	0
282	0	0
284	0	0
286	0	0
288	0	0
290	0	0
292	0	0
294	0	0
296	0	0
298	0	0
260	1	0
262	0	0
264	0	0
266	0	0
268	0	0
270	0	0
272	0	0
274	0	0
276	0	0
278	0	0
280	1	0
282	0	0
284	0	0
286	0	0
288	0	0
290	0	0
292	0	0
294	0	0
296	0	0
298	0	0
300	1	0
302	0	0
304	0	0
306	0	0
308	0	0
310	0	0
312	0	0
314	0	0
316	0	0
318	0	0
400	1	0
402	0	0
404	0	0
406	0	0
408	0	0
410	0	0
412	0	0
414	0	0
416	0	0
418	0	0
420	1	0
422	0	0
424	0	0
426	0	0
428	0	0
430	0	0
432	0	0
434	0	0
436	0	0
438	0	0
440	1	0
442	0	0
444	0	0
446	0	0
448	0	0
450	0	0
452	0	0
454	0	0
456	0	0
458	0	0
500	1	0
502	0	0
504	0	0
506	0	0
508	0	0
510	0	0
512	0	0
514	0	0
516	0	0
518	0	0
520	1	0
522	0	0
524	0	0
526	0	0
528	0	0
530	0	0
532	0	0
534	0	0
536	0	0
538	0	0
540	1	0
542	0	0
544	0	0
546	0	0
548	0	0
550	0	0
552	0	0
554	0	0
556	0	0
558	0	0
580	1	0
582	0	0
584	0	0
586	0	0
588	0	0
590	0	0
592	0	0
594	0	0
596	0	0
598	0	0
600	1	0
602	0	0
604	0	0
606	0	0
608	0	0
610	0	0
612	0	0
614	0	0
616	0	0
618	0	0
660	1	0
662	0	0
664	0	0
666	0	0
668	0	0
670	0	0
672	0	0
674	0	0
676	0	0
678	0	0
740	1	0
742	0	0
744	0	0
746	0	0
748	0	0
750	0	0
752	0	0
754	0	0
756	0	0
758	0	0
760	1	0
762	0	0
764	0	0
766	0	0
768	0	0
770	0	0
772	0	0
774	0	0
776	0	0
778	0	0
780	1	0
782	0	0
784	0	0
786	0	0
788	0	0
790	0	0
792	0	0
794	0	0
796	0	0
798	0	0
880	1	0
882	0	0
884	0	0
886	0	0
888	0	0
890	0	0
892	0	0
894	0	0
896	0	0
898	0	0
920	1	0
922	0	0
924	0	0
926	0	0
928	0	0
930	0	0
932	0	0
934	0	0
936	0	0
938	0	0
1000	1	0
1002	0	0
1004	0	0
1006	0	0
1008	0	0
1010	0	0
1012	0	0
1014	0	0
1016	0	0
1018	0	0
1020	1	0
1022	0	0
1024	0	0
1026	0	0
1028	0	0
1030	0	0
1032	0	0
1034	0	0
1036	0	0
1038	0	0
1040	1	0
1042	0	0
1044	0	0
1046	0	0
1048	0	0
1050	0	0
1052	0	0
1054	0	0
1056	0	0
1058	0	0
